[
  {
    "id": 1,
    "email": "Lanet@gmail.com",
    "address": "India",
    "companyName": "Lanet"
  },
  {
    "id": 2,
    "email": "Google@gmail.com",
    "address": "USA",
    "companyName": "'Google'"
  },
  {
    "id": 3,
    "companyName": "Microsoft",
    "address": "'UK'",
    "email": "'Microsoft@gmail.com'"
  },
  {
    "id": 4,
    "companyName": "Facebook",
    "address": "California",
    "email": "Facebook@gmail.com"
  },
  {
    "id": 5,
    "companyName": "testing",
    "address": "india",
    "email": "testing@gmail.com"
  }
]